-------------------------------------------------------------------------------
Test set: com.db.tests.AirportAppTest
-------------------------------------------------------------------------------
Tests run: 10, Failures: 0, Errors: 0, Skipped: 0, Time elapsed: 0.39 sec
